Для лекции 37:

$categories=\App\Models\Category::all(); // получить все данные из таблицы categories, аналогично запросу select * from `categories`;
$categories=Category::where('is_active', '=', true)->get(); // select * from `categories` where `is_active` = 1
$categories=Category::where('is_active', '=', true)->orderBy('title')->take(5)->get(); // select * from `categories` where `is_active` = 1 order by `title` asc limit 5
$categories=Category::where('is_active', '=', true)->orderBy('title')->get(); // select * from `categories` where `is_active` = 1 order by `title` asc

$categories=Category::select('title')->where('is_active', true)->get(); // select `title` from `categories` where `is_active` = 1
$categories=Category::select('title')->where('is_active', true)->get(); // тот же запрос что и выше но только выбираем точечно через foreach поле 'title'
    foreach ($categories as $category) {
        dump($category->title);
    }
    dump($categories);

$categories=Category::chunk(10, function ($cat) { // select * from `categories` order by `categories`.`id` asc limit 10 offset 0
        foreach ($cat as $c) {                    // за раз выгружай по 10 шт, то есть за 1 запрос он отдаст 10 выгрузок, можно и 100 выгрузок сделать,
            dump($c);                             // это нужно если у тебя миллиард записей и одним запросом ты будешь долго ждать пока оно все прогрузится, есть сеттаймаут 40 сек,
        }                                         // и за 40 сек все не успеешь подгрузить, а если ты порционно будешь подгружать по 10,100 записей, то это будет работать быстрей.

$categories = Category::where('is_active', 1)->first(); // select * from `categories` where `is_active` = 1 limit 1, для метода first() не нужно использовать дополнительно метод get()
$categories = Category::firstWhere('is_active', 1); // все то же самое в запросе будет

Route::get('/category/{id}', function ($id) {                             // select * from `categories` where `is_active` = '100000' limit 1
    $categories = Category::where('is_active', '=', $id)->firstOrFail();  // показывает если id такого нет, то покажет 404 ошибку т.к. используется метод firstOrFail(),
    dump($categories);                                                    // а не пустую страницу без контента если использовать метод get().
    return view('welcome', compact('categories'));
});

die(); // чтобы программа дальше не выполнялась


//  1.запишите в таб. categories 10 записей
//    $entryInCat = [
//        [
//            'title' => 'wireless headphones',
//            'description' => 'wireless headphones category'
//        ],
//        [
//            'title' => 'telephones',
//            'description' => 'telephones category'
//        ],
//        [
//            'title' => 'notebooks',
//            'description' => 'notebooks category'
//        ],
//        [
//            'title' => 'computers',
//            'description' => 'computers category'
//        ],
//        [
//            'title' => 'TVs',
//            'description' => 'TVs category'
//        ],
//        [
//            'title' => 'keyboards',
//            'description' => 'keyboards category'
//        ],
//        [
//            'title' => 'digital watch',
//            'description' => 'digital watch category'
//        ],
//        [
//            'title' => 'gaming consoles',
//            'description' => 'gaming consoles category'
//        ],
//        [
//            'title' => 'mouses',
//            'description' => 'mouses category'
//        ],
//        [
//            'title' => 'gps navigators',
//            'description' => 'gps navigators category'
//        ]
//    ];
//
//    foreach ($entryInCat as $value) {
//        $categories = Category::create(
//            [
//                'title' => $value['title'],
//                'description' => $value['description']
//            ]
//        );
//    }
//    dump($categories);



//    2. обновите в таб. categories 7 записей
//    $categories = Category::where("id", 1)->update(["title" => "wireless headphones"]);
//    dump($categories);

//    $categories = Category::updateOrCreate(    // обновить запись если она есть по условию, или создать если её нет
//        ['id' => 1],
//        [   'title' => 'telephones',
//        ]
//    );
//    dump($categories);



//    3. удалите в таб. categories 5 записей
//    $categories = CategoriesHasArticles::where('id', 2)->delete();
//    dump($categories);



//    4. получите в таб. categories 4 записей по дате обновления, получить самые обновленные

//    $categories = Category::orderBy('updated_at', 'desc')->take(5)->get();  //   получите в таб. articles 5 записей по дате обновления, получить самые обновленные
//    dump($categories);



//     5. создайте запрос на запись в бд, создаем статью которую привязываем к категории, затем удаляем именно эту категорию и смотрим результат

//    $article = Article::create(
//        [
//            'title' => 'gaming consoles installations',
//            'description' => 'how gaming consoles installed'
//        ],
//    );
//
//    $categories_has_articles = CategoriesHasArticles::create(
//        [
//            'category_id' => '8',
//            'article_id' => $article->id
//        ]
//    );
//
//    dump($article);

//    $categories = Category::where('id', 8)->delete();
//    dump($categories);



//    6. запишите в таб. articles 12 записей

//    $entryInArt = [
//        [
//            'title' => 'wireless headphones',
//            'description' => 'wireless headphones category'
//        ],
//        [
//            'title' => 'telephones',
//            'description' => 'telephones category'
//        ],
//        [
//            'title' => 'notebooks',
//            'description' => 'notebooks category'
//        ],
//        [
//            'title' => 'computers',
//            'description' => 'computers category'
//        ],
//        [
//            'title' => 'TVs',
//            'description' => 'TVs category'
//        ],
//        [
//            'title' => 'keyboards',
//            'description' => 'keyboards category'
//        ],
//        [
//            'title' => 'digital watch',
//            'description' => 'digital watch category'
//        ]
//    ];
//
//    $reversed = array_reverse($entryInArt);
//
//    foreach ($reversed as $value) {
//        $articles = Article::create(
//            [
//                'title' => $value['title'],
//                'description' => $value['description']
//            ]
//        );
//    }
//    dump($articles);

//    9. свяжите несколько статей с категориями в момент создание статей

//    $entryInArt = [
//        [
//            'title' => 'Стул',
//            'description' => 'Стол сидит'
//        ],
//        [
//            'title' => 'Стол',
//            'description' => 'Стол стоит'
//        ],
//        [
//            'title' => 'Окно',
//            'description' => 'Окно светит'
//        ],
//    ];
//
//    foreach ($entryInArt as $value) {
//        $articles = Article::create(
//            [
//                'title' => $value['title'],
//                'description' => $value['description']
//            ]
//        );
//        $categories_has_articles = CategoriesHasArticles::create(
//            [
//                'category_id' => 2,
//                'article_id' => $articles->id
//            ]
//        );
//    }
//
//    dump($categories_has_articles);



//    10. привязать статью к нескольким категориям

//    $id = [
//        [
//            'id' => 5,
//        ],
//        [
//            'id' => 6,
//        ],
//        [
//            'id' => 7,
//        ]
//    ];
//
//    foreach ($id as $value) {
//        $categories_has_articles = CategoriesHasArticles::create(
//            [
//                'category_id' => $value['id'],
//                'article_id' => '12'
//            ]
//        );
//    }
//
//dump($categories_has_articles);



//    11.получить категории статьи

//    $categories_has_articles = CategoriesHasArticles::where('category_id', 2)->get();
//    dump($categories_has_articles);



//    12.получить статей категории

//    $categories_has_articles = CategoriesHasArticles::where('article_id', 12)->get();
//    dump($categories_has_articles);


//    14.удалить все статьи, проверить что с категориями

//    $articles = Article::where('is_active', true)->delete();
//    dump($articles);



//    15. обновить запись если она есть по условию, или создать если её нет

//    $articles = Article::updateOrCreate(
//        ['id' => 0],
//        [   'title' => 'gps navigator installations',
//            'description' => 'how gps navigators are installed',
//            'is_active' => true
//        ]
//    );
//    dump($articles);
//    return view('welcome', compact('articles'));





//                                                Примеры роутов

//Route::view('/contacts', 'forms.contact'); // отправка формы телефона и имени

//Route::get('/test5', [RedirectController::class, 'index']); // редирект с базы данных

//Route::get('/category/test', function () {    //  нейминг роута.
//    return ' => test';                        // при переходе на /category в браузере, в роуте где есть view оно переходит в файл 'cat',
//})->name('test-test');                        // и оттуда понимает на какой роут переключится а именно на роут с именем ->name('test-test')
//
//Route::view('/category', 'cat');

//Route::view('/test', 'http://localhost:8090/test2');  //  тоже пример перекидывания с одной страницы на другую




Создает модель и миграцию для модели
    php artisan make:model Category -m





    я аддешнул вот эти файлы -
    modified:   docker/docker-compose.yml
            new file:   read-1.me
            new file:   server/app/Models/Gender.php
            new file:   server/app/Models/Role.php
            modified:   server/composer.lock
            new file:   server/database/migrations/2021_09_08_195255_create_roles_table.php
            new file:   server/database/migrations/2021_09_08_195551_create_genders_table.php
            new file:   server/database/migrations/2021_09_08_212403_add_surname_address_phone_foreign_key_role_id_foreign_key_gender_id_columns_to_users_table.php
            modified:   server/database/seeders/DatabaseSeeder.php
            modified:   server/routes/web.php
            modified:   server/supervisord.log
            modified:   server/supervisord.pid






            спросить можно ли создавать одинаковое поле product_id в двух разных таблицах и строить связи от одного id в две таблицы с таблицы products
             и на удаление cascade или нужно другое удаление ставить ?